<svg xmlns="http://www.w3.org/2000/svg" xmlns:xlink="http://www.w3.org/1999/xlink" width="1920.5" height="260.998" viewBox="0 0 1920.5 260.998">
  <defs>
    <linearGradient id="linear-gradient" x1="0.852" x2="0.168" y2="4.113" gradientUnits="objectBoundingBox">
      <stop offset="0" stop-color="#1b2a93"/>
      <stop offset="1" stop-color="#d31ed1"/>
    </linearGradient>
  </defs>
  <g id="visuals" transform="translate(0 -1379.5)">
    <rect id="Rectangle_126" data-name="Rectangle 126" width="1920" height="260" transform="translate(0 1380)" fill="url(#linear-gradient)"/>
    <g id="train" transform="translate(81 561)">
      <path id="Path_82" data-name="Path 82" d="M163.594.237H0" transform="translate(931.699 1033.5)" fill="none" stroke="#fff" stroke-width="1" stroke-dasharray="2"/>
      <g id="Group_25" data-name="Group 25" transform="translate(604.372 916.208)">
        <g id="Group_23" data-name="Group 23" transform="translate(34.628 113.294)">
          <rect id="Rectangle_72" data-name="Rectangle 72" width="2.227" height="1.307" rx="0.654" transform="translate(20.44 2.866)" fill="#fff"/>
          <rect id="Rectangle_73" data-name="Rectangle 73" width="2.227" height="1.307" rx="0.654" transform="translate(23.539 2.866)" fill="#fff"/>
          <rect id="Rectangle_74" data-name="Rectangle 74" width="2.227" height="1.307" rx="0.654" transform="translate(26.71 2.866)" fill="#fff"/>
          <rect id="Rectangle_75" data-name="Rectangle 75" width="2.227" height="1.307" rx="0.654" transform="translate(29.882 2.866)" fill="#fff"/>
          <rect id="Rectangle_76" data-name="Rectangle 76" width="2.227" height="1.307" rx="0.654" transform="translate(32.981 2.866)" fill="#fff"/>
          <rect id="Rectangle_77" data-name="Rectangle 77" width="2.227" height="1.307" rx="0.654" transform="translate(45.498 2.866)" fill="#fff"/>
          <rect id="Rectangle_78" data-name="Rectangle 78" width="2.227" height="1.307" rx="0.654" transform="translate(39.227 2.866)" fill="#fff"/>
          <rect id="Rectangle_79" data-name="Rectangle 79" width="2.227" height="1.307" rx="0.654" transform="translate(42.326 2.866)" fill="#fff"/>
          <rect id="Rectangle_80" data-name="Rectangle 80" width="2.227" height="1.307" rx="0.654" transform="translate(36.153 2.866)" fill="#fff"/>
          <rect id="Rectangle_81" data-name="Rectangle 81" width="2.323" height="1.307" rx="0.653" transform="translate(11.923 2.803)" fill="#fff"/>
          <path id="Path_77" data-name="Path 77" d="M101.971,133.9c-.13.016-.354.048-.638.106a4.466,4.466,0,0,0-.672.2.115.115,0,0,0-.062.16l.4.795a.115.115,0,0,0,.132.06,3.6,3.6,0,0,1,.46-.088c.131-.016.3-.021.411-.022a.115.115,0,0,0,.113-.117l-.013-.981A.115.115,0,0,0,101.971,133.9Z" transform="translate(-91.424 -131.034)" fill="#fff"/>
          <path id="Path_78" data-name="Path 78" d="M85.915,138.485a.124.124,0,0,0-.156-.052c-.179.077-.554.24-.772.34s-.512.254-.67.336a.124.124,0,0,0-.055.162l.24.527a.125.125,0,0,0,.161.064c.177-.073.517-.214.648-.262.393-.146.724-.241.909-.29a.124.124,0,0,0,.074-.184Z" transform="translate(-77.357 -134.933)" fill="#fff"/>
          <path id="Path_79" data-name="Path 79" d="M157.77,129.506a.3.3,0,0,0-.3.3v1.29a.3.3,0,1,0,.6,0V129.8A.3.3,0,0,0,157.77,129.506Z" transform="translate(-140.407 -127.254)" fill="#fff"/>
          <path id="Path_80" data-name="Path 80" d="M86.687,114.408v.29H86.4v-.968H83.3l-.484.194H73.807l-.533-.387-9.587.048-.63.484s-8.91,0-9.345-.048-2.131-.1-2.712-.242a18.57,18.57,0,0,0-3.2-.484,21.958,21.958,0,0,0-3.341.194,32.086,32.086,0,0,0-3.2,1.211c-.63.291-3.39,1.888-4.455,2.566a8.662,8.662,0,0,0-2.131,1.985c-.145.242.048.678.048.678s.436.533.775.581.678.048.726.339-.29.29-.29.29l6.053-.1.339-.726h.106a.873.873,0,1,0,1.31,0H43.8l.661,1.065,1.4.048.145-.387h.164a.872.872,0,0,0,1.719,0H76.738a.872.872,0,0,0,1.719,0h.193l.242.339h1.5l.145-.339h.143a.872.872,0,0,0,1.719,0h3.754v-.726h.194v-.726h.242v.242h.339v-5.423Zm-15.543-.678h1.743v.29H71.144Zm-2.469,0h1.743v.29H68.674Zm-2.179,0h1.743v.29H66.5Zm-2.469,0h1.743v.29H64.026Zm-18.065.409c1.057-.048,3.325.048,3.348.048h36.8v.151h-36.8c-.026,0-2.288-.1-3.338-.048a8.926,8.926,0,0,0-2.158.432l.151-.182A7.306,7.306,0,0,1,45.961,114.139Zm37,1.722v1.792H54.584V115.86Zm-29.36-.79v.317H53.36v-.317Zm-.675.248v3.215a.288.288,0,0,1-.288.288h-1.27a.288.288,0,0,1-.288-.288v-3.215a.288.288,0,0,1,.288-.288h1.27A.288.288,0,0,1,52.924,115.318Zm-3.731.4v1.946s-3.02-.029-3.717,0a9.879,9.879,0,0,0-2.178.29l-1.568.494-.523-.987s1.074-.581,2-.987a8.048,8.048,0,0,1,2.846-.668C46.7,115.77,49.193,115.72,49.193,115.72Zm-11.921,2.319a.251.251,0,1,1,.315-.242A.286.286,0,0,1,37.273,118.039Zm3.955-3.222a22.246,22.246,0,0,1,3.2-1.211,4.215,4.215,0,0,1-1.211,1.549,23.6,23.6,0,0,1-3.486,1.307,8.188,8.188,0,0,1-1.923.29C39.062,116,40.752,115.037,41.228,114.817Zm-3.253,2.4c0-.107.2-.194.436-.194s.436.087.436.194-.2.194-.436.194S37.975,117.323,37.975,117.216Zm48.38,1.876-42.629-.033a7.835,7.835,0,0,0-2.52.546c-.623.291-2.032,1.069-2.032,1.069l-.763.006s1.763-1.144,2.725-1.67a9.593,9.593,0,0,1,3.149-1.029c.9-.105,5.682-.063,5.682-.063H51v.8a.312.312,0,0,0,.312.312h1.376A.312.312,0,0,0,53,118.72v-.8l33.354.027Z" transform="translate(-34.628 -113.294)" fill="#fff"/>
        </g>
        <g id="Group_29" data-name="Group 29" transform="translate(278.628 113.294)">
          <rect id="Rectangle_72-2" data-name="Rectangle 72" width="2.227" height="1.307" rx="0.654" transform="translate(29.634 2.866)" fill="#fff"/>
          <rect id="Rectangle_73-2" data-name="Rectangle 73" width="2.227" height="1.307" rx="0.654" transform="translate(26.535 2.866)" fill="#fff"/>
          <rect id="Rectangle_74-2" data-name="Rectangle 74" width="2.227" height="1.307" rx="0.654" transform="translate(23.364 2.866)" fill="#fff"/>
          <rect id="Rectangle_75-2" data-name="Rectangle 75" width="2.227" height="1.307" rx="0.654" transform="translate(20.192 2.866)" fill="#fff"/>
          <rect id="Rectangle_76-2" data-name="Rectangle 76" width="2.227" height="1.307" rx="0.654" transform="translate(17.093 2.866)" fill="#fff"/>
          <rect id="Rectangle_77-2" data-name="Rectangle 77" width="2.227" height="1.307" rx="0.654" transform="translate(4.576 2.866)" fill="#fff"/>
          <rect id="Rectangle_78-2" data-name="Rectangle 78" width="2.227" height="1.307" rx="0.654" transform="translate(10.846 2.866)" fill="#fff"/>
          <rect id="Rectangle_79-2" data-name="Rectangle 79" width="2.227" height="1.307" rx="0.654" transform="translate(7.747 2.866)" fill="#fff"/>
          <rect id="Rectangle_80-2" data-name="Rectangle 80" width="2.227" height="1.307" rx="0.654" transform="translate(13.921 2.866)" fill="#fff"/>
          <rect id="Rectangle_81-2" data-name="Rectangle 81" width="2.323" height="1.307" rx="0.653" transform="translate(38.056 2.803)" fill="#fff"/>
          <path id="Path_77-2" data-name="Path 77" d="M100.729,133.9c.13.016.354.048.638.106a4.466,4.466,0,0,1,.672.2.115.115,0,0,1,.062.16l-.4.795a.115.115,0,0,1-.132.06,3.6,3.6,0,0,0-.46-.088c-.131-.016-.3-.021-.411-.022a.115.115,0,0,1-.113-.117l.013-.981A.115.115,0,0,1,100.729,133.9Z" transform="translate(-58.975 -131.035)" fill="#fff"/>
          <path id="Path_78-2" data-name="Path 78" d="M84.646,138.485a.124.124,0,0,1,.156-.052c.179.077.554.24.772.34s.512.254.67.336a.124.124,0,0,1,.055.162l-.24.527a.125.125,0,0,1-.161.064c-.177-.073-.517-.214-.648-.262-.393-.146-.724-.241-.909-.29a.124.124,0,0,1-.074-.184Z" transform="translate(-40.904 -134.933)" fill="#fff"/>
          <path id="Path_79-2" data-name="Path 79" d="M157.77,129.506a.3.3,0,0,1,.3.3v1.29a.3.3,0,1,1-.6,0V129.8A.3.3,0,0,1,157.77,129.506Z" transform="translate(-122.831 -127.254)" fill="#fff"/>
          <path id="Path_80-2" data-name="Path 80" d="M34.87,114.408v.29h.29v-.968h3.1l.484.194H47.75l.533-.387,9.587.048.63.484s8.91,0,9.345-.048,2.131-.1,2.712-.242a18.571,18.571,0,0,1,3.2-.484,21.958,21.958,0,0,1,3.341.194,32.086,32.086,0,0,1,3.2,1.211c.63.291,3.39,1.888,4.455,2.566a8.663,8.663,0,0,1,2.131,1.985c.145.242-.048.678-.048.678s-.436.533-.775.581-.678.048-.726.339.29.29.29.29l-6.053-.1-.339-.726h-.106a.873.873,0,1,1-1.31,0h-.053l-.661,1.065-1.4.048-.145-.387H75.38a.872.872,0,0,1-1.719,0H44.82a.872.872,0,0,1-1.719,0h-.193l-.242.339h-1.5l-.145-.339h-.143a.872.872,0,0,1-1.719,0H35.4v-.726h-.194v-.726h-.242v.242h-.339v-5.423Zm15.543-.678H48.67v.29h1.743Zm2.469,0H51.14v.29h1.743Zm2.179,0H53.319v.29h1.743Zm2.469,0H55.788v.29h1.743Zm18.065.409c-1.057-.048-3.325.048-3.348.048h-36.8v.151h36.8c.026,0,2.288-.1,3.338-.048a8.926,8.926,0,0,1,2.158.432l-.151-.182A7.307,7.307,0,0,0,75.6,114.139Zm-37,1.722v1.792H66.974V115.86Zm29.36-.79v.317H68.2v-.317Zm.675.248v3.215a.288.288,0,0,0,.288.288h1.27a.288.288,0,0,0,.288-.288v-3.215a.288.288,0,0,0-.288-.288h-1.27A.288.288,0,0,0,68.634,115.318Zm3.731.4v1.946s3.02-.029,3.717,0a9.879,9.879,0,0,1,2.178.29l1.568.494.523-.987s-1.074-.581-2-.987a8.048,8.048,0,0,0-2.846-.668C74.862,115.77,72.364,115.72,72.364,115.72Zm11.921,2.319a.251.251,0,1,0-.315-.242A.286.286,0,0,0,84.285,118.039Zm-3.955-3.222a22.246,22.246,0,0,0-3.2-1.211,4.215,4.215,0,0,0,1.211,1.549,23.6,23.6,0,0,0,3.486,1.307,8.188,8.188,0,0,0,1.923.29C82.5,116,80.8,115.037,80.33,114.817Zm3.253,2.4c0-.107-.2-.194-.436-.194s-.436.087-.436.194.2.194.436.194S83.583,117.323,83.583,117.216ZM35.2,119.092l42.629-.033a7.835,7.835,0,0,1,2.52.546c.623.291,2.032,1.069,2.032,1.069l.763.006s-1.763-1.144-2.725-1.67a9.594,9.594,0,0,0-3.149-1.029c-.9-.105-5.682-.063-5.682-.063H70.557v.8a.312.312,0,0,1-.312.312H68.868a.312.312,0,0,1-.312-.312v-.8l-33.354.027Z" transform="translate(-34.628 -113.294)" fill="#fff"/>
        </g>
        <g id="Group_24" data-name="Group 24" transform="translate(86.964 113.509)">
          <rect id="Rectangle_82" data-name="Rectangle 82" width="2.227" height="1.307" rx="0.654" transform="translate(30.761 2.439)" fill="#fff"/>
          <rect id="Rectangle_83" data-name="Rectangle 83" width="2.227" height="1.307" rx="0.654" transform="translate(24.515 2.439)" fill="#fff"/>
          <rect id="Rectangle_84" data-name="Rectangle 84" width="2.227" height="1.307" rx="0.654" transform="translate(21.416 2.439)" fill="#fff"/>
          <rect id="Rectangle_85" data-name="Rectangle 85" width="2.227" height="1.307" rx="0.654" transform="translate(33.86 2.439)" fill="#fff"/>
          <rect id="Rectangle_86" data-name="Rectangle 86" width="2.227" height="1.307" rx="0.654" transform="translate(37.032 2.439)" fill="#fff"/>
          <rect id="Rectangle_87" data-name="Rectangle 87" width="2.227" height="1.307" rx="0.654" transform="translate(27.687 2.439)" fill="#fff"/>
          <rect id="Rectangle_88" data-name="Rectangle 88" width="2.227" height="1.307" rx="0.654" transform="translate(18.244 2.439)" fill="#fff"/>
          <rect id="Rectangle_89" data-name="Rectangle 89" width="2.227" height="1.307" rx="0.654" transform="translate(8.746 2.439)" fill="#fff"/>
          <rect id="Rectangle_90" data-name="Rectangle 90" width="2.227" height="1.307" rx="0.654" transform="translate(15.073 2.439)" fill="#fff"/>
          <rect id="Rectangle_91" data-name="Rectangle 91" width="2.227" height="1.307" rx="0.654" transform="translate(11.974 2.439)" fill="#fff"/>
          <rect id="Rectangle_92" data-name="Rectangle 92" width="0.688" height="1.905" rx="0.344" transform="translate(3.466 1.932)" fill="#fff"/>
          <rect id="Rectangle_93" data-name="Rectangle 93" width="0.688" height="1.905" rx="0.344" transform="translate(43.83 1.932)" fill="#fff"/>
          <path id="Path_81" data-name="Path 81" d="M458.912,115.9V115h-3.1l-.423.291H440.76l-.529-.45h-9.763l-.37.37H415.359l-.476-.265H411.84v.953h-.476c.027-.027,0,5.186,0,5.186h.556v.423h.053v.728c-.025.025,2.254.018,3.9.01a.843.843,0,0,0,1.68.009l.492.378h1.469l.2-.4h.169a.844.844,0,0,0,1.683,0h27.722a.843.843,0,0,0,1.683,0h.019l.437.4h1.429l.159-.357h.286a.843.843,0,0,0,1.675,0h3.873v-.767h.04v-.4h.529V115.9Zm-4.26.9a.338.338,0,0,1,.338-.338h.965a.338.338,0,0,1,.338.338v2.8a.338.338,0,0,1-.338.338h-.965a.338.338,0,0,1-.338-.338Zm-16.762-1.764h1.865v.268H437.89Zm-2.3,0h1.865v.268h-1.865Zm-2.3,0h1.865v.268h-1.865Zm-2.3,0h1.865v.268h-1.865Zm-11.232,1.943h31.477v1.689c.069.065-31.477.06-31.477.06Zm-5.384-.111a.321.321,0,0,1,.321-.321h.918a.321.321,0,0,1,.321.321v2.663a.321.321,0,0,1-.321.321h-.918a.321.321,0,0,1-.321-.321Zm44.492,3.924H411.814v-.159h47.045Zm0-.423H411.814v-1.482h2.434v.847a.37.37,0,0,0,.37.37h1.058a.37.37,0,0,0,.37-.37v-.847h38.525v.847a.37.37,0,0,0,.37.37H456a.37.37,0,0,0,.37-.37v-.847h2.487Z" transform="translate(-411.364 -114.84)" fill="#fff"/>
        </g>
        <g id="Group_26" data-name="Group 26" transform="translate(134.964 113.509)">
          <rect id="Rectangle_82-2" data-name="Rectangle 82" width="2.227" height="1.307" rx="0.654" transform="translate(30.761 2.439)" fill="#fff"/>
          <rect id="Rectangle_83-2" data-name="Rectangle 83" width="2.227" height="1.307" rx="0.654" transform="translate(24.515 2.439)" fill="#fff"/>
          <rect id="Rectangle_84-2" data-name="Rectangle 84" width="2.227" height="1.307" rx="0.654" transform="translate(21.416 2.439)" fill="#fff"/>
          <rect id="Rectangle_85-2" data-name="Rectangle 85" width="2.227" height="1.307" rx="0.654" transform="translate(33.86 2.439)" fill="#fff"/>
          <rect id="Rectangle_86-2" data-name="Rectangle 86" width="2.227" height="1.307" rx="0.654" transform="translate(37.032 2.439)" fill="#fff"/>
          <rect id="Rectangle_87-2" data-name="Rectangle 87" width="2.227" height="1.307" rx="0.654" transform="translate(27.687 2.439)" fill="#fff"/>
          <rect id="Rectangle_88-2" data-name="Rectangle 88" width="2.227" height="1.307" rx="0.654" transform="translate(18.244 2.439)" fill="#fff"/>
          <rect id="Rectangle_89-2" data-name="Rectangle 89" width="2.227" height="1.307" rx="0.654" transform="translate(8.746 2.439)" fill="#fff"/>
          <rect id="Rectangle_90-2" data-name="Rectangle 90" width="2.227" height="1.307" rx="0.654" transform="translate(15.073 2.439)" fill="#fff"/>
          <rect id="Rectangle_91-2" data-name="Rectangle 91" width="2.227" height="1.307" rx="0.654" transform="translate(11.974 2.439)" fill="#fff"/>
          <rect id="Rectangle_92-2" data-name="Rectangle 92" width="0.688" height="1.905" rx="0.344" transform="translate(3.466 1.932)" fill="#fff"/>
          <rect id="Rectangle_93-2" data-name="Rectangle 93" width="0.688" height="1.905" rx="0.344" transform="translate(43.83 1.932)" fill="#fff"/>
          <path id="Path_81-2" data-name="Path 81" d="M458.912,115.9V115h-3.1l-.423.291H440.76l-.529-.45h-9.763l-.37.37H415.359l-.476-.265H411.84v.953h-.476c.027-.027,0,5.186,0,5.186h.556v.423h.053v.728c-.025.025,2.254.018,3.9.01a.843.843,0,0,0,1.68.009l.492.378h1.469l.2-.4h.169a.844.844,0,0,0,1.683,0h27.722a.843.843,0,0,0,1.683,0h.019l.437.4h1.429l.159-.357h.286a.843.843,0,0,0,1.675,0h3.873v-.767h.04v-.4h.529V115.9Zm-4.26.9a.338.338,0,0,1,.338-.338h.965a.338.338,0,0,1,.338.338v2.8a.338.338,0,0,1-.338.338h-.965a.338.338,0,0,1-.338-.338Zm-16.762-1.764h1.865v.268H437.89Zm-2.3,0h1.865v.268h-1.865Zm-2.3,0h1.865v.268h-1.865Zm-2.3,0h1.865v.268h-1.865Zm-11.232,1.943h31.477v1.689c.069.065-31.477.06-31.477.06Zm-5.384-.111a.321.321,0,0,1,.321-.321h.918a.321.321,0,0,1,.321.321v2.663a.321.321,0,0,1-.321.321h-.918a.321.321,0,0,1-.321-.321Zm44.492,3.924H411.814v-.159h47.045Zm0-.423H411.814v-1.482h2.434v.847a.37.37,0,0,0,.37.37h1.058a.37.37,0,0,0,.37-.37v-.847h38.525v.847a.37.37,0,0,0,.37.37H456a.37.37,0,0,0,.37-.37v-.847h2.487Z" transform="translate(-411.364 -114.84)" fill="#fff"/>
        </g>
        <g id="Group_27" data-name="Group 27" transform="translate(182.964 113.509)">
          <rect id="Rectangle_82-3" data-name="Rectangle 82" width="2.227" height="1.307" rx="0.654" transform="translate(30.761 2.439)" fill="#fff"/>
          <rect id="Rectangle_83-3" data-name="Rectangle 83" width="2.227" height="1.307" rx="0.654" transform="translate(24.515 2.439)" fill="#fff"/>
          <rect id="Rectangle_84-3" data-name="Rectangle 84" width="2.227" height="1.307" rx="0.654" transform="translate(21.416 2.439)" fill="#fff"/>
          <rect id="Rectangle_85-3" data-name="Rectangle 85" width="2.227" height="1.307" rx="0.654" transform="translate(33.86 2.439)" fill="#fff"/>
          <rect id="Rectangle_86-3" data-name="Rectangle 86" width="2.227" height="1.307" rx="0.654" transform="translate(37.032 2.439)" fill="#fff"/>
          <rect id="Rectangle_87-3" data-name="Rectangle 87" width="2.227" height="1.307" rx="0.654" transform="translate(27.687 2.439)" fill="#fff"/>
          <rect id="Rectangle_88-3" data-name="Rectangle 88" width="2.227" height="1.307" rx="0.654" transform="translate(18.244 2.439)" fill="#fff"/>
          <rect id="Rectangle_89-3" data-name="Rectangle 89" width="2.227" height="1.307" rx="0.654" transform="translate(8.746 2.439)" fill="#fff"/>
          <rect id="Rectangle_90-3" data-name="Rectangle 90" width="2.227" height="1.307" rx="0.654" transform="translate(15.073 2.439)" fill="#fff"/>
          <rect id="Rectangle_91-3" data-name="Rectangle 91" width="2.227" height="1.307" rx="0.654" transform="translate(11.974 2.439)" fill="#fff"/>
          <rect id="Rectangle_92-3" data-name="Rectangle 92" width="0.688" height="1.905" rx="0.344" transform="translate(3.466 1.932)" fill="#fff"/>
          <rect id="Rectangle_93-3" data-name="Rectangle 93" width="0.688" height="1.905" rx="0.344" transform="translate(43.83 1.932)" fill="#fff"/>
          <path id="Path_81-3" data-name="Path 81" d="M458.912,115.9V115h-3.1l-.423.291H440.76l-.529-.45h-9.763l-.37.37H415.359l-.476-.265H411.84v.953h-.476c.027-.027,0,5.186,0,5.186h.556v.423h.053v.728c-.025.025,2.254.018,3.9.01a.843.843,0,0,0,1.68.009l.492.378h1.469l.2-.4h.169a.844.844,0,0,0,1.683,0h27.722a.843.843,0,0,0,1.683,0h.019l.437.4h1.429l.159-.357h.286a.843.843,0,0,0,1.675,0h3.873v-.767h.04v-.4h.529V115.9Zm-4.26.9a.338.338,0,0,1,.338-.338h.965a.338.338,0,0,1,.338.338v2.8a.338.338,0,0,1-.338.338h-.965a.338.338,0,0,1-.338-.338Zm-16.762-1.764h1.865v.268H437.89Zm-2.3,0h1.865v.268h-1.865Zm-2.3,0h1.865v.268h-1.865Zm-2.3,0h1.865v.268h-1.865Zm-11.232,1.943h31.477v1.689c.069.065-31.477.06-31.477.06Zm-5.384-.111a.321.321,0,0,1,.321-.321h.918a.321.321,0,0,1,.321.321v2.663a.321.321,0,0,1-.321.321h-.918a.321.321,0,0,1-.321-.321Zm44.492,3.924H411.814v-.159h47.045Zm0-.423H411.814v-1.482h2.434v.847a.37.37,0,0,0,.37.37h1.058a.37.37,0,0,0,.37-.37v-.847h38.525v.847a.37.37,0,0,0,.37.37H456a.37.37,0,0,0,.37-.37v-.847h2.487Z" transform="translate(-411.364 -114.84)" fill="#fff"/>
        </g>
        <g id="Group_28" data-name="Group 28" transform="translate(230.964 113.509)">
          <rect id="Rectangle_82-4" data-name="Rectangle 82" width="2.227" height="1.307" rx="0.654" transform="translate(30.761 2.439)" fill="#fff"/>
          <rect id="Rectangle_83-4" data-name="Rectangle 83" width="2.227" height="1.307" rx="0.654" transform="translate(24.515 2.439)" fill="#fff"/>
          <rect id="Rectangle_84-4" data-name="Rectangle 84" width="2.227" height="1.307" rx="0.654" transform="translate(21.416 2.439)" fill="#fff"/>
          <rect id="Rectangle_85-4" data-name="Rectangle 85" width="2.227" height="1.307" rx="0.654" transform="translate(33.86 2.439)" fill="#fff"/>
          <rect id="Rectangle_86-4" data-name="Rectangle 86" width="2.227" height="1.307" rx="0.654" transform="translate(37.032 2.439)" fill="#fff"/>
          <rect id="Rectangle_87-4" data-name="Rectangle 87" width="2.227" height="1.307" rx="0.654" transform="translate(27.687 2.439)" fill="#fff"/>
          <rect id="Rectangle_88-4" data-name="Rectangle 88" width="2.227" height="1.307" rx="0.654" transform="translate(18.244 2.439)" fill="#fff"/>
          <rect id="Rectangle_89-4" data-name="Rectangle 89" width="2.227" height="1.307" rx="0.654" transform="translate(8.746 2.439)" fill="#fff"/>
          <rect id="Rectangle_90-4" data-name="Rectangle 90" width="2.227" height="1.307" rx="0.654" transform="translate(15.073 2.439)" fill="#fff"/>
          <rect id="Rectangle_91-4" data-name="Rectangle 91" width="2.227" height="1.307" rx="0.654" transform="translate(11.974 2.439)" fill="#fff"/>
          <rect id="Rectangle_92-4" data-name="Rectangle 92" width="0.688" height="1.905" rx="0.344" transform="translate(3.466 1.932)" fill="#fff"/>
          <rect id="Rectangle_93-4" data-name="Rectangle 93" width="0.688" height="1.905" rx="0.344" transform="translate(43.83 1.932)" fill="#fff"/>
          <path id="Path_81-4" data-name="Path 81" d="M458.912,115.9V115h-3.1l-.423.291H440.76l-.529-.45h-9.763l-.37.37H415.359l-.476-.265H411.84v.953h-.476c.027-.027,0,5.186,0,5.186h.556v.423h.053v.728c-.025.025,2.254.018,3.9.01a.843.843,0,0,0,1.68.009l.492.378h1.469l.2-.4h.169a.844.844,0,0,0,1.683,0h27.722a.843.843,0,0,0,1.683,0h.019l.437.4h1.429l.159-.357h.286a.843.843,0,0,0,1.675,0h3.873v-.767h.04v-.4h.529V115.9Zm-4.26.9a.338.338,0,0,1,.338-.338h.965a.338.338,0,0,1,.338.338v2.8a.338.338,0,0,1-.338.338h-.965a.338.338,0,0,1-.338-.338Zm-16.762-1.764h1.865v.268H437.89Zm-2.3,0h1.865v.268h-1.865Zm-2.3,0h1.865v.268h-1.865Zm-2.3,0h1.865v.268h-1.865Zm-11.232,1.943h31.477v1.689c.069.065-31.477.06-31.477.06Zm-5.384-.111a.321.321,0,0,1,.321-.321h.918a.321.321,0,0,1,.321.321v2.663a.321.321,0,0,1-.321.321h-.918a.321.321,0,0,1-.321-.321Zm44.492,3.924H411.814v-.159h47.045Zm0-.423H411.814v-1.482h2.434v.847a.37.37,0,0,0,.37.37h1.058a.37.37,0,0,0,.37-.37v-.847h38.525v.847a.37.37,0,0,0,.37.37H456a.37.37,0,0,0,.37-.37v-.847h2.487Z" transform="translate(-411.364 -114.84)" fill="#fff"/>
        </g>
      </g>
    </g>
    <path id="Intersection_7" data-name="Intersection 7" d="M-16899.561,552.454c11.873-1.713,24.047-2.651,34.7-4.441v-1.2c-3.338-20.051-29.436-27.436-56.473-27.454-27.041.018-53.141,7.407-56.477,27.463v5.632h-2.7v-5.632c-3.334-20.056-29.436-27.445-56.473-27.463-27.037.018-53.139,7.4-56.477,27.454v5.641h-2.7v-5.641c-3.34-20.051-29.437-27.436-56.473-27.454-23.234.018-45.775,5.475-53.777,19.732q5.766,1.059,11.467,2.158c16.656,3.207,39.285,2.842,54.15,11.206H-17909.5V325.618l.314-4.553c4.248,18.2,28.236,23.557,42.115,33.082,7.207,4.94,18.025,12.127,25.469,13.57a33.212,33.212,0,0,0,8.131.108c6.3-.418,12.42-.832,13.588,6.135,16.455-1.142,27.615,9.187,43.533,12.307,6.2,1.214,12.3,1.07,18.752,2,9.924,1.429,14.7,5.479,23.867,7.843,6.76,1.744,14.545.184,21.566,1.843,6.459,1.528,13.785,8.288,20.2,11.457,15.822,7.807,32.232,13.736,48.09,19.525,29.945,10.922,62.855,17.354,94.469,21.84,14.811,2.1,26.133,13.035,40.238,15.664,16.014,2.985,29.121,2.477,45.006,8.2,13.92,5.016,26.33,11.466,41.016,15.166,12.031,3.03,27.512,6.212,39.266,10.981,8.842,3.582,18.313,7.228,28,10.419h562.832c.363-1.654,1.113-3.245,1.133-4.711,1.42.778,4.557.593,6.156,1.65,1.381-4.989,4.9-4.18,7.656-.238.408-5.03,4.391-7.336,9.109-6.324-.184-5.021,4.406-10.644,6.838-13.583,3.322-4.014,6.441-10.1,10.23-13.242,4.518-3.749,9.146-5.753,13.533-9.3,5.25-4.248,6.328-7.439,14.061-6.648-.166-1.326.453-3.115.26-4.418a15.82,15.82,0,0,1,8.252,5.394c5.291-2.558,15.639,3.928,19.346,8.181.508-6.01,5.674-6.32,10.258-4.486-.377-6.09,5.363-8.99,9.223-3.857.311-5.488,3.844-9.345,9.377-8.257.193-6.63,7.906-9.291,9.691-1.793,2.57-7.124,10.158-3.969,14.414-.018.283-1.317,1.012-2.153,1.3-3.466,4.367-.872,8.2,1.56,10.791,5.07,4.355-1.564,8.217,1.533,10.182,5.578,3.389-1.3,6.086.328,7.672,3.695,2.027-1.434,3.7-.553,5.461-1.344-.467,2.095.752,5.066.283,7.165,3.561.557,4.949,1.919,6.369,5.394a47.024,47.024,0,0,0,4.514-1.681c.111-5.079,3.672-5.5,7.416-2.742.242-.31,1.99-3.618,2.045-3.767a12.328,12.328,0,0,1,.939,1.119c1.375-3.776.732-4.531,4.684-2.207-.273-2.351,1.053-3.91,1.025-6.072a19.878,19.878,0,0,0,2.539-.324c-2.715-5.794,3.295-22.344,11.115-14.1.994-5.052,4.922-3.56,7.367.054.729-.647.77-1.636,1.344-2.4a28.875,28.875,0,0,0,4.5,1.4c2.557-2.58,3.5-2.967,7.23-1.623.109-.539.213-1.074.316-1.614,3.092.216,4.912,1.3,5.852,3.582-.449-1.735.342-2.994.66-5.434a8.776,8.776,0,0,0,2.041.027c.6-.027,1.146-.054,1.375-.036a18.935,18.935,0,0,0,.141,2.378c-.369-6.095,6.463-6.293,6.7-2.589a9.759,9.759,0,0,1,4.094-8.45,11.981,11.981,0,0,1,1.188-9c-1.043-1.915-1.678-2.27-.846-4.167-1.244-2.059-1.1-3.519.566-6.18-2.059-4.872,1.52-10.657,5.061-4.953-1.43-6.194,4.131-10.756,9.328-6.553.844-7.758,5.3-4.724,9.254-6.1,2.742-.953,6.314-7.506,6.922-.364.037-4.423,2.656-7.106,6.846-5.394,2.279-7.628,11.354-4.693,14.344.93,5.5-2.594,10.639,1.492,10.207,7.484,4.922-2.418,11.135.126,13.508,5.344,2.975-4.243,7.375-2.8,8.6,1.816,4-3.569,10.527-.912,12.379,3.973,2.688-3.03,4.738-1.964,5.25,2.517,4.107-.625,4.037.126,7.3,2.113,2.5-2.994,4.58-1.2,5.945,2.724,2.656,2.167,3.277,2.1,4.51,5.771,2.795-1.223,4.436-1.061,6.7,2.459,2.891-2.27,5.631-1.537,7.951,1.133,2.549-2.791,3.938-3.659,6-.022,3.29-1.609,3.829-1.6,6.98.935,2.872-2.423,4.621-.611,5.425,2.441,11.044-1.726,22.155-3.65,33.244-5.834.031-.4.063-.814.09-1.339a93.633,93.633,0,0,0-1.366-22.141c-.193-.067-.4-.324-.63-.836a1.518,1.518,0,0,1-2.584.7c-.05,1.344-1.371,3.061-2.193,1.16-.27,1.133-1.556,2.49-2.207.751-.022,1.268-1.587,3.128-2.14,1.169-.508,1.375-1.762,2.6-2.566.692-.6,1.438-2.9,3.232-2.832.454-.957,2.176-3.1,2.76-4.077.256-.926.971-2.525.854-2.387-.71-.368,1.6-2.948,3.178-3.065.647-1.712,2.378-2.58.62-2.517-1.465a13.531,13.531,0,0,1-.7,1.236,2.2,2.2,0,0,1-.936-1.919c-.665,1.357-2-.607-1.833-1.973-.751.814-1.5.715-1.866-.234-1.159,1.034-2.4-.162-2.135-1.623-2.89-.211-1.29-4.8.872-3.6a1.485,1.485,0,0,1,.813-1.641c-.014-.841.437-1.672,1.183-1.73a2.622,2.622,0,0,1,3.173-2.216c.022-1.362,1.105-2.926,2.324-1.429-.131-.9.27-1.259.737-1.82a6.176,6.176,0,0,0,.679.993c.508-1.106,1.676-.679,2.53-.063.445-.957,1.33-.814,2.095-.054a1.711,1.711,0,0,1,1.812-.6c-.288-1.142.692-1.447,1.681-.971a1.329,1.329,0,0,1,2.544-.742c-.112-1.591,1.466-2.49,2.566-1.164.621-1.757,2.554-1.056,3.295.229a1.456,1.456,0,0,1,2.338.458,1.492,1.492,0,0,1,.1-.324,26.6,26.6,0,0,0-5.561-6.553c-2.095-1.744-6.135-2.611-10.207-3.614a2.231,2.231,0,0,0,.031.306c-1.272-.225-1.564.328-2.283.733a32.632,32.632,0,0,1-3.214,1.663c-1.138.49-4.378,2.769-4.738-.018-1.15.939-2.876,1.524-3.209-.463-.746.885-2.225,1.861-2.854.229-.764.971-3.223,2.45-3.47.238-1,.634-2.27.638-2.557-.7-.379.243-1.025.243-1.322.409-.045-.184.049-.476-.068-.629a9.242,9.242,0,0,0-.93.009c-1.119.049-2.273.1-2.562-1.173-.084-.081-.2-.058-.314-.036a.37.37,0,0,1-.311-.031c-.057-.211.037-.431-.066-.629-1.209.094-2.6.193-2.328-1.393a2.188,2.188,0,0,1-2.562-1.856c-1.277.261-2.059-.589-1.852-1.865-1,.211-1.689-.117-1.631-1.16-1.5.346-2.248-.679-1.678-2.086-3.609-.31-2.525-6.891-5.461-7.052.8-1.834-1.029-1.924-2.076-2.985.021.022-.23-.44-.486-.9s-.516-.944-.5-.9c-.176-.378-.652-1.164-.873-1.686-1.029-2.441-.885-6.706-.709-9.727,1.783-.818-.994-4.423,2.732-3.78-.715-1.438.09-2.409,1.613-2.108-.072-.939.428-1.416,1.389-1.393-.1-1.11.656-1.82,1.682-1.447-.145-1.569,1.564-2.113,2.795-1.627a1.8,1.8,0,0,1,.5-2.36c-.68-.1-1.012-1.285-.973-2.6a12.467,12.467,0,0,1-.7,1.236,2.189,2.189,0,0,1-.936-1.919c-.67,1.357-2-.6-1.838-1.973-.746.814-1.5.715-1.861-.234-1.164,1.038-2.4-.162-2.139-1.623-2.887-.207-1.287-4.8.875-3.6a1.482,1.482,0,0,1,.814-1.641c-.018-.841.432-1.668,1.178-1.726a2.632,2.632,0,0,1,3.178-2.22c.018-1.357,1.105-2.926,2.324-1.429-.135-.9.27-1.259.736-1.82a6.465,6.465,0,0,0,.674,1c.514-1.11,1.678-.679,2.531-.063.449-.957,1.33-.814,2.094-.054a1.729,1.729,0,0,1,1.816-.6c-.287-1.137.688-1.447,1.678-.966a1.329,1.329,0,0,1,2.543-.746c-.094-1.375,1.074-2.238,2.1-1.582a3.474,3.474,0,0,1-.008-.755c-1.744-.364.3-3.146,1.118-3.317-.554-1.151-.872-3,.931-2.746-.76-.823-.221-1.645.926-1.632a2.087,2.087,0,0,1-.313-.315h31.371a7.131,7.131,0,0,1-.488,3.708c.822-.733,2.09-1.447,2.751-.7.895-.751,2.121-.953,2.863.018.741-1.344,2.185-.553,3.254-1.079.556-.272,1.259-1.4,2.024-1.946h1.5a2.4,2.4,0,0,1,.387.467,1.936,1.936,0,0,1,.036-.467h16.043c1.675.475,3.346,1.874,1.128,2.683a2.1,2.1,0,0,1,1.878,2.468c2.2-.93,2.027.917,2.1,2.576a2.414,2.414,0,0,1,2.242-1.119c-.09.526.176,1.245.054,1.766.908-.823,3.191-1.641,3.039.27a3.037,3.037,0,0,1,.948-.094,3.083,3.083,0,0,0,.858-.067c-.081.157-.319.319-.373.432a2.038,2.038,0,0,1,2.055,2.522c.943-.279,2.135-.876,2.558.229.265.013.61,0,.984-.018,1.28-.058,2.85-.112,2.256,1.061,1.024-.557,2.437-.93,3.038.292a1.58,1.58,0,0,1,2.319,1.452,2.308,2.308,0,0,1,2.068,1.348c.018-.324.049-.742.031-1.052,1.021.315,1.074,1.726.746,2.742,1.142-.562,3.142-.022,2.494,1.42,1.457.387,2.563,1.686,1.861,3.214,1.38-.013,3.991,2.49,2.382,3.29,1.034.319,2.616.773,2.342,2,1.025-.076,1.7.292,2.747,1.429.2.216.4.418.575.611.737-1.434,1.613-2.508,2.311-2.719-3.1-2.836,3.316-6.306,3.074-9.88a3.052,3.052,0,0,1,1.011,0,4.641,4.641,0,0,0,.7.045,7.636,7.636,0,0,1,2.481-1.106c.27-.387.009-.845.283-1.232,2.095-.27,3.313-1.861,5.659-1.353-.746-2.045-.041-3.164,2.121-2.949-2.845-.683-2.5-3.708.1-4.306-.306-1.659-.387-3.753.962-4.958a4.4,4.4,0,0,1-1.429-1.007h73.651c-.543,1.532-2.161,2.387-3.259.764,1.07,2.832-2.387,6.338-3.389,3.695.314,3.083-5.1,6.028-7.232,3.51-1.618,2.211-6.221,4.176-6.212.09-.544,1.452-1.708,2.535-2.912,2.234.036.162.067.342.112.526.732,3.065-1.016,8.621-1.708,11.785q-.284,1.3-.589,2.607a2.409,2.409,0,0,1-.63,2.674.6.6,0,0,1-.022.1c1.794,1.178.652,2.733-.867,3.866-.081.391-.162.782-.238,1.169a5.379,5.379,0,0,0,.692.1c-.233,1.1,0,2.189-.58,3.16,1.56,1.519-.144,3.533-1.834,4.908-.121.467-.247.935-.373,1.4.3,1.564-.242,3.645-1.119,4.225a40.049,40.049,0,0,0-1.551,11.251,60.5,60.5,0,0,0,1.56,10.711c.5,2.459.445,3.245,2.98,2.985a27.561,27.561,0,0,0,4.751-1.146,9.66,9.66,0,0,0,6.949-6.864c.278-.836.764-3.187,1.442-5.236a2.413,2.413,0,0,1-2.148-2.095c-2.535,1.654-3.789-.517-3.34-3.187a4.158,4.158,0,0,1-1.087-.2,4.4,4.4,0,0,0-1.065-.193c.387-1.011.009-2.2.593-3.169-5.452.688-2.979-7.61-2.4-10.077l1.245-2.665c-2.913.157-3.668-3.133-1-3.969-1.012-1.645-1.012-3.5.841-3.982-1.708-1.735-1.245-4.1,1.438-3.65-.181-2.562,1.344-5.753,3.654-3.425,1.308-1.065.714-1.038,1.434-1.007.188,0,.477.013.917,0-.76-2.944,2.445-6.275,4.188-2.895.261-2.171,3.583-6.54,4.122-2.337.445-2.382,2.229-3.214,3.385-1.011,1.1-3.115,5.623-5.744,5.677-.746,1.366-2.018,4.108-2.126,4.238.494,1-.791,2.127-.494,2.9-.867a5.033,5.033,0,0,1,.283,1.775c.944.414,1.784.984,2.238,1.214,3.272-1.281,4.68,2.387,4.854,5.079,2.014-3.7,4.7-7.021,6.1-6.549-.077-1.447.921-2.616.921-4.009,3.533-.724,6.311,1.793,6.837,5.263,1.137-5,5.87-3.627,7.012.7.185-.814.656-1.713.822-2.49,3.133.422,5.614,2.881,6.81,5.929,3.345-.081,4.882,4.36,5.637,7.758a17.567,17.567,0,0,0,.072-1.834c3.52.355,6.67,2.868,8.913,5.452a.649.649,0,0,1,.692-.746c3.079,2.827,6.221,2.418,8.98,4.935-.2-5.174,3.627-6.221,7.709-4.949,1.734-2.5.08-1.695,3.33-2.638-.917-2.589-.193-5.677.854-8.288-.656-.342-1.169-.625-1.861-.935-.018-3.937.485-12.626,6.2-10.612-.827-3.555,2.014-8.621,3.9-4.216a9.715,9.715,0,0,1-.558-4.373H-15990v260Zm37.395-5.641v.719c.2-.036.4-.072.59-.112,13.7-2.638,27.6-5.169,41.693-7.448,1.295-5.83,6.639-10.316,12.77-9.556-.031-4.3,1.871-8.3,6.51-8.347a9.974,9.974,0,0,1-.059-2.62q-2.508-.088-5.025-.09C-16832.725,519.376-16858.826,526.761-16862.166,546.813Zm-115.646-8.113c1.938-3.591,5.354-6.962,10.064-9.916V516.652h-10.064Zm-12.756-9.916c4.711,2.953,8.121,6.324,10.059,9.916V516.652h-10.059Zm128.4,9.911c1.938-3.591,5.354-6.958,10.064-9.911V516.652h-10.064Zm-12.756-9.911c4.711,2.953,8.123,6.32,10.059,9.911V516.652h-10.059Zm-218.537,9.911c1.936-3.591,5.352-6.958,10.059-9.911V516.652h-10.059Zm-12.758-9.911c4.707,2.953,8.123,6.32,10.061,9.911V516.652h-10.061Zm-102.891,9.812a.234.234,0,0,0,.055.009c1.941-3.555,5.34-6.891,10.01-9.821V516.652h-10.064Zm-12.756-9.812a28.8,28.8,0,0,1,9.691,9.264l.367.067V516.652h-10.059Zm-72.146-6.8c18.191,2.387,35.037,8.877,53.982,11.57q12.381,1.766,24.52,3.906c-8.756-13.048-30.443-18.092-52.77-18.105A117.748,117.748,0,0,0-17294.01,521.988Zm444.246,5.421q2.057-1.139,4.391-2.18c1.91-.849,3.924-1.632,6.023-2.342v-6.234h-10.414Zm-37.914-4.522c2.1.71,4.117,1.492,6.027,2.342q2.326,1.038,4.387,2.18V516.652h-10.414Zm-77.734,4.522c1.377-.76,2.836-1.488,4.393-2.18q2.865-1.274,6.027-2.342v-6.234h-10.42Zm-37.918-4.522q3.155,1.065,6.033,2.342,2.326,1.038,4.391,2.18V516.652h-10.424Zm-77.729,4.522q2.057-1.139,4.391-2.18,2.865-1.274,6.029-2.342v-6.234h-10.42Zm-37.914-4.522q3.149,1.065,6.027,2.342,2.326,1.038,4.393,2.18V516.652h-10.42Zm-77.732,4.522q2.063-1.139,4.391-2.18,2.865-1.274,6.027-2.342v-6.234h-10.418Zm-37.914-4.522c2.1.71,4.117,1.492,6.027,2.342q2.326,1.038,4.387,2.18V516.652h-10.414Zm397.611-.755a94.436,94.436,0,0,1,10.418-2.522v-2.958h-10.418Zm-63.432-2.522a93.939,93.939,0,0,1,10.42,2.522v-5.479h-10.42Zm-52.215,2.522a94.436,94.436,0,0,1,10.418-2.522v-2.958h-10.418Zm-63.432-2.522a94.116,94.116,0,0,1,10.418,2.522v-5.479h-10.418Zm-52.217,2.522a94.365,94.365,0,0,1,10.42-2.522v-2.958h-10.42Zm-63.426-2.522a94.151,94.151,0,0,1,10.414,2.522v-5.479h-10.414Zm-52.221,2.522a94.436,94.436,0,0,1,10.418-2.522v-2.958h-10.418Zm-63.432-2.522a94.223,94.223,0,0,1,10.424,2.522v-5.479h-10.424Zm-52.215,1.784c.646.049,1.289.108,1.932.171,2.719-.76,5.557-1.416,8.486-1.955v-2.958h-10.418Zm-12.758-.6q3.278.249,6.49.3c1.322.023,2.631.067,3.93.144v-4.585h-10.42Zm-12.4-1.56c3.385.58,6.742,1.043,10.064,1.357v-3.937h-10.064Zm500.5-.027c3.375-.544,6.859-.939,10.42-1.178v-1.375h-10.42Zm-88.943-1.178c3.555.238,7.043.634,10.42,1.178v-2.553h-10.42Zm-26.7,1.178c3.371-.544,6.859-.939,10.414-1.178v-1.375h-10.414Zm-88.947-1.178c3.555.238,7.043.634,10.418,1.178v-2.553h-10.418Zm-26.705,1.178c3.381-.544,6.865-.939,10.42-1.178v-1.375h-10.42Zm-88.943-1.178c3.561.238,7.045.634,10.42,1.178v-2.553h-10.42Zm-26.7,1.178c3.381-.544,6.863-.939,10.424-1.178v-1.375h-10.424Zm-88.943-1.178c3.561.238,7.043.634,10.42,1.178v-2.553h-10.42Zm-26.7,1.178c3.375-.544,6.859-.939,10.414-1.178v-1.375h-10.414Zm-40.615-.458v-2.095h-9.609C-17333.852,517.439-17330.643,518.145-17327.451,518.747Zm515.961-.854q2.865-.142,5.783-.144h.037q2.684.007,5.33.121a7.231,7.231,0,0,1,.449-1.106v-.112h-11.6Zm-109.846-.144h.02q2.912.007,5.779.144v-1.241h-11.6v1.241c1.91-.094,3.844-.139,5.785-.144Zm-115.646,0h.014q2.918.007,5.789.144v-1.241h-11.605v1.241q2.865-.142,5.785-.144Zm-115.646,0h.018q2.912.007,5.785.144v-1.241h-11.605v1.241q2.871-.142,5.783-.144Zm-115.648,0h.02q2.912.007,5.779.144v-1.241h-11.6v1.241c1.91-.094,3.844-.139,5.785-.144Zm473.039-5.039h2.006a7.27,7.27,0,0,1,.076-.9h-2.082Zm-2.561,0h2.318v-.9h-2.318Zm-2.562,0h2.314v-.9h-2.314Zm-2.562,0h2.314v-.9h-2.314Zm-2.566,0h2.318v-.9h-2.318Zm-2.562,0h2.32v-.9h-2.32Zm-2.566,0h2.32v-.9h-2.32Zm-2.562,0h2.32v-.9h-2.32Zm-2.561,0h2.314v-.9h-2.314Zm-2.562,0h2.314v-.9h-2.314Zm-2.562,0h2.314v-.9h-2.314Zm-2.566,0h2.314v-.9h-2.314Zm-2.566,0h2.318v-.9H-16826Zm-2.562,0h2.32v-.9h-2.32Zm-2.562,0h2.32v-.9h-2.32Zm-2.561,0h2.314v-.9h-2.314Zm-2.562,0h2.314v-.9h-2.314Zm-2.566,0h2.318v-.9h-2.318Zm-1.029,0h.781v-.9h-.781Zm-2.738,0h2.486v-.9h-2.486Zm-2.732,0h2.49v-.9h-2.49Zm-2.732,0h2.484v-.9h-2.484Zm-2.732,0h2.484v-.9h-2.484Zm-2.738,0h2.49v-.9h-2.49Zm-2.732,0h2.49v-.9h-2.49Zm-2.732,0h2.49v-.9h-2.49Zm-2.734,0h2.486v-.9h-2.486Zm-.457,0h.215v-.9h-.215Zm-2.275,0h2.027v-.9h-2.027Zm-.463,0h.217v-.9h-.217Zm-2.732,0h2.49v-.9h-2.49Zm-2.732,0h2.49v-.9h-2.49Zm-2.732,0h2.484v-.9h-2.484Zm-2.738,0h2.49v-.9h-2.49Zm-2.729,0h2.486v-.9h-2.486Zm-2.732,0h2.484v-.9h-2.484Zm-2.738,0h2.486v-.9h-2.486Zm-2.732,0h2.49v-.9h-2.49Zm-1.029,0h.787v-.9h-.787Zm-2.566,0h2.32v-.9h-2.32Zm-2.562,0h2.32v-.9h-2.32Zm-2.566,0h2.32v-.9h-2.32Zm-2.562,0h2.32v-.9h-2.32Zm-2.561,0h2.318v-.9h-2.318Zm-2.562,0h2.314v-.9h-2.314Zm-2.566,0h2.318v-.9h-2.318Zm-2.562,0h2.32v-.9h-2.32Zm-2.566,0h2.318v-.9h-2.318Zm-2.562,0h2.32v-.9h-2.32Zm-2.562,0h2.32v-.9h-2.32Zm-2.561,0h2.314v-.9h-2.314Zm-2.562,0h2.314v-.9h-2.314Zm-2.566,0h2.318v-.9h-2.318Zm-2.562,0h2.314v-.9h-2.314Zm-2.566,0h2.32v-.9h-2.32Zm-2.562,0h2.314v-.9h-2.314Zm-2.562,0h2.316v-.9h-2.316Zm-2.561,0h2.314v-.9h-2.314Zm-2.566,0h2.318v-.9h-2.318Zm-2.562,0h2.314v-.9h-2.314Zm-2.562,0h2.314v-.9h-2.314Zm-2.566,0h2.32v-.9h-2.32Zm-2.562,0h2.32v-.9h-2.32Zm-2.562,0h2.316v-.9h-2.316Zm-2.566,0h2.32v-.9h-2.32Zm-1.029,0h.783v-.9h-.783Zm-2.736,0h2.49v-.9h-2.49Zm-2.729,0h2.486v-.9h-2.486Zm-2.738,0h2.49v-.9h-2.49Zm-2.732,0h2.486v-.9h-2.486Zm-2.732,0h2.486v-.9h-2.486Zm-2.732,0h2.484v-.9h-2.484Zm-2.732,0h2.484v-.9h-2.484Zm-2.738,0h2.49v-.9h-2.49Zm-.463,0h.221v-.9h-.221Zm-2.27,0h2.027v-.9h-2.027Zm-.459,0h.211v-.9h-.211Zm-2.736,0h2.49v-.9h-2.49Zm-2.734,0h2.486v-.9h-2.486Zm-2.732,0h2.49v-.9h-2.49Zm-2.732,0h2.486v-.9h-2.486Zm-2.738,0h2.49v-.9h-2.49Zm-2.732,0h2.49v-.9h-2.49Zm-2.732,0h2.49v-.9h-2.49Zm-2.732,0h2.49v-.9h-2.49Zm-1.029,0h.781v-.9h-.781Zm-2.566,0h2.318v-.9h-2.318Zm-2.562,0h2.314v-.9h-2.314Zm-2.562,0h2.314v-.9h-2.314Zm-2.566,0h2.32v-.9h-2.32Zm-2.562,0h2.32v-.9h-2.32Zm-2.561,0h2.314v-.9h-2.314Zm-2.568,0h2.32v-.9h-2.32Zm-2.561,0h2.314v-.9h-2.314Zm-2.562,0h2.314v-.9h-2.314Zm-2.566,0h2.318v-.9h-2.318Zm-2.562,0h2.32v-.9h-2.32Zm-2.562,0h2.316v-.9h-2.316Zm-2.566,0h2.32v-.9h-2.32Zm-2.562,0h2.32v-.9h-2.32Zm-2.561,0h2.314v-.9h-2.314Zm-2.562,0h2.314v-.9h-2.314Zm-2.566,0h2.314v-.9h-2.314Zm-2.562,0h2.314v-.9h-2.314Zm-2.566,0h2.32v-.9h-2.32Zm-2.562,0h2.32v-.9h-2.32Zm-2.561,0h2.318v-.9h-2.318Zm-2.562,0h2.314v-.9h-2.314Zm-2.566,0h2.314v-.9h-2.314Zm-2.562,0h2.314v-.9h-2.314Zm-2.562,0h2.314v-.9h-2.314Zm-2.566,0h2.32v-.9h-2.32Zm-1.029,0h.787v-.9h-.787Zm-2.732,0h2.484v-.9h-2.484Zm-2.738,0h2.49v-.9h-2.49Zm-2.732,0h2.49v-.9h-2.49Zm-2.732,0h2.486v-.9h-2.486Zm-2.732,0h2.484v-.9h-2.484Zm-2.734,0h2.486v-.9h-2.486Zm-2.736,0h2.49v-.9h-2.49Zm-2.732,0h2.484v-.9h-2.484Zm-.459,0h.215v-.9h-.215Zm-2.275,0h2.027v-.9h-2.027Zm-.457,0h.211v-.9h-.211Zm-2.738,0h2.49v-.9h-2.49Zm-2.732,0h2.49v-.9h-2.49Zm-2.732,0h2.49v-.9h-2.49Zm-2.732,0h2.484v-.9h-2.484Zm-2.734,0h2.486v-.9h-2.486Zm-2.732,0h2.486v-.9h-2.486Zm-2.736,0h2.49v-.9h-2.49Zm-2.734,0h2.49v-.9h-2.49Zm-1.029,0h.787v-.9h-.787Zm-2.566,0h2.32v-.9h-2.32Zm-2.561,0h2.318v-.9h-2.318Zm-2.562,0h2.314v-.9h-2.314Zm-2.566,0h2.318v-.9h-2.318Zm-2.562,0h2.318v-.9h-2.318Zm-2.566,0h2.318v-.9h-2.318Zm-2.562,0h2.32v-.9h-2.32Zm-2.562,0h2.32v-.9h-2.32Zm-2.561,0h2.318v-.9h-2.318Zm-2.566,0h2.318v-.9h-2.318Zm-2.562,0h2.318v-.9h-2.318Zm-2.562,0h2.318v-.9h-2.318Zm-2.566,0h2.318v-.9h-2.318Zm-2.562,0h2.32v-.9h-2.32Zm-2.562,0h2.32v-.9h-2.32Zm-2.561,0h2.314v-.9h-2.314Zm-2.566,0h2.318v-.9h-2.318Zm-2.562,0h2.314v-.9h-2.314Zm-2.562,0h2.314v-.9h-2.314Zm-2.566,0h2.318v-.9h-2.318Zm-2.562,0h2.314v-.9h-2.314Zm-2.562,0h2.316v-.9h-2.316Zm-2.566,0h2.32v-.9h-2.32Zm-2.561,0h2.318v-.9h-2.318Zm-2.562,0h2.314v-.9h-2.314Zm-2.562,0h2.314v-.9h-2.314Zm-1.033,0h.785v-.9h-.785Zm-2.734,0h2.486v-.9h-2.486Zm-2.736,0h2.49v-.9h-2.49Zm-2.732,0h2.49v-.9h-2.49Zm-2.732,0h2.484v-.9h-2.484Zm-2.734,0h2.486v-.9h-2.486Zm-2.732,0h2.486v-.9h-2.486Zm-2.732,0h2.486v-.9h-2.486Zm-2.738,0h2.49v-.9h-2.49Zm-.457,0h.215v-.9h-.215Zm-2.275,0h2.027v-.9h-2.027Zm-.463,0h.221v-.9h-.221Zm-2.732,0h2.49v-.9h-2.49Zm-2.732,0h2.49v-.9h-2.49Zm-2.734,0h2.486v-.9h-2.486Zm-2.736,0h2.49v-.9h-2.49Zm-2.729,0h2.486v-.9h-2.486Zm-2.732,0h2.484v-.9h-2.484Zm-2.738,0h2.49v-.9h-2.49Zm-2.732,0h2.49v-.9h-2.49Zm-1.029,0h.787v-.9h-.787Zm-2.566,0h2.318v-.9h-2.318Zm-2.562,0h2.32v-.9h-2.32Zm-2.566,0h2.32v-.9h-2.32Zm-2.562,0h2.32v-.9h-2.32Zm-2.561,0h2.318v-.9h-2.318Zm-2.562,0h2.314v-.9h-2.314Zm-2.562,0h2.314v-.9h-2.314Zm-2.566,0h2.318v-.9h-2.318Zm-2.566,0h2.318v-.9h-2.318Zm-2.562,0h2.32v-.9h-2.32Zm-2.562,0h2.32v-.9h-2.32Zm-2.561,0h2.318v-.9h-2.318Zm-2.562,0h2.314v-.9h-2.314Zm-2.566,0h2.318v-.9h-2.318Zm-2.562,0h2.314v-.9h-2.314Zm-2.562,0h2.314v-.9h-2.314Zm-2.566,0h2.32v-.9h-2.32Zm-2.562,0h2.316v-.9h-2.316Zm-2.561,0h2.314v-.9h-2.314Zm-2.566,0h2.318v-.9h-2.318Zm-2.562,0h2.314v-.9h-2.314Zm-2.562,0h2.314v-.9h-2.314Zm-2.566,0h2.318v-.9h-2.318Zm-2.562,0h2.32v-.9h-2.32Zm-2.562,0h2.316v-.9h-2.316Zm-2.566,0h2.32v-.9h-2.32Zm-1.029,0h.787v-.9h-.787Zm-2.732,0h2.486v-.9h-2.486Zm-2.732,0h2.486v-.9h-2.486Zm-2.738,0h2.49v-.9h-2.49Zm-2.732,0h2.49v-.9h-2.49Zm-2.732,0h2.486v-.9h-2.486Zm-2.732,0h2.484v-.9h-2.484Zm-2.738,0h2.49v-.9h-2.49Zm-2.732,0h2.49v-.9h-2.49Zm-.459,0h.217v-.9h-.217Zm-2.273,0h2.027v-.9h-2.027Zm-.459,0h.211v-.9h-.211Zm-2.732,0h2.484v-.9h-2.484Zm-2.738,0h2.49v-.9h-2.49Zm-2.732,0h2.49v-.9h-2.49Zm-2.732,0h2.49v-.9h-2.49Zm-2.732,0h2.484v-.9h-2.484Zm-2.734,0h2.486v-.9h-2.486Zm-2.736,0h2.49v-.9h-2.49Zm-2.732,0h2.49v-.9h-2.49Zm-1.029,0h.785v-.9h-.785Zm-2.566-.562c.6.189,1.2.378,1.793.562h.525v-.9h-2.318Zm-.244-.081v-.256h-.8Zm1026.464-117.638c-1.312,3.542-2.13,11.875-2.261,20.977,3.538-3.928,12.32-13.314,16.146-6.913.63-2.032,2.526-3.875,3.663-5.439a23.473,23.473,0,0,1,1.951,1.425c1.308-5.389,8.271-.031,7.951-7.524,3.686-.283,6.059-2.634,8.792.548,1.271-7.084,11.4-20.137,17.629-11.174a5.212,5.212,0,0,0,1.546.166c.679-.013,1.146-.027,2.6,1.052.323-1.25,1.762-2.472,2.063-3.34.615.661,1.978,1.115,2.679,1.946,2.188-4.113,5.5-3.753,9.088-3.394a22.922,22.922,0,0,0,4.307.148c4.359-.391,11.282-5.254,11.317,2.594.692-2.715,5.754-3.78,10.811-3.659-.333-6.769-1.205-13.687-2.6-18-.554-1.722-6.766-5.762-14.389-8.617-3.339-1.25-7.524-1.609-10.468-4.144a43.548,43.548,0,0,1-3.448-3.546,11.825,11.825,0,0,1-1.653-2.845c-.216-.418-.63-1.524-.859-1.879l2.414-1.906c.031,1.362,3.475,5.034,4.8,6.468a11.6,11.6,0,0,0,8.257,3.677c.62-3.25-1.668-8.028-4.464-10.239a14.45,14.45,0,0,1-5.416.481,23.424,23.424,0,0,0-2.368-.018,14.254,14.254,0,0,1-.3-2.176c-.368.625-1.268,1.51-1.546,1.982.112-.337.314-1.272.387-1.65a5.6,5.6,0,0,1-4.621,1.591c.18-1.2-.418-2.045-.261-3.187-2.629,1.784-4.858-.85-7.677-1.016.207-.53.171-1.254.432-1.807a3.586,3.586,0,0,1-2.854-.076,2.971,2.971,0,0,1-.643,2.643c.962.508.858,1.393-.193,1.973,1.82.692.3,4.4-.494,3.448.8,1.079.508,5.879-.972,4.36.238,1-.045,2.059-.93,2.216a3.238,3.238,0,0,1-1.853,1.8c-.166-.256-.368-.31-.53-.706-.4.764-1.815,4.378-2.976,2.144.2,1.443-.976,2.373-1.618,1.757a1.394,1.394,0,0,1-1.865,1.51c-.468,2.149-1.815,1.636-3.25,2.225-1.721.71-2.719,2-2.836-1.124-.193.351-.908.823-1.119,1.115-.09-.391-.449-.85-.521-1.3-.719,2.014-2.188.036-2.549-1.16-.2.328-.719.638-.885.885-.157-.351-.558-.607-.692-1.119-.3.746-.818.953-1.29.8a66.512,66.512,0,0,1-6.428,6.931,1.1,1.1,0,0,1,.562.733,1.266,1.266,0,0,1,2.261.688,1.628,1.628,0,0,1,.756-.094,2.467,2.467,0,0,0,.579-.031c-.058.288.113.71.055.993.876-.153,1.852-.081,1.7,1.007.765-.135.89.647.7,1.4.886-.566,2.485-.724,1.771.724.8.157.719.085.881.881.926-.144,1.523.44.907,1.259.944-.045.976.854.656,1.524,1.1.054,1.115,1.16.181,1.645a2.524,2.524,0,0,1,.66,1.807c1-.036,2.157-.845,3.119-.6-.013.391.283.751.229,1.169,1.228-.2,1.547.926.729,1.74.274.036.513.211.791.234a1.229,1.229,0,0,1-1,1.573c.472.814.468,1.82-.7,2.09.521,1.083-.185,2.162-1.385,1.551-.17,1.029-1,3.074-2.076,1.748-.458.719-2.076,3.3-2.342.908-.594.67-1.533,1.78-2.067.7a1.062,1.062,0,0,1-2.086.351c-.48.962-1.717,1.4-2.4.481-.549,1.25-3.048,1.641-2.333-.072a12.035,12.035,0,0,1-1.874.382,3.432,3.432,0,0,0-.063-.445,1.635,1.635,0,0,1-2.409.706c-.611,1.079-2.162,1.784-2.606.175a3.236,3.236,0,0,1-1.228,1.029c-.233.166-1.271.975-1.389,1.016-1.29.4-2.292-.009-2.266-1.7-.036.2-.351,1.286-.562,1.353a.785.785,0,0,1-.863-.18.706.706,0,0,0-.49-.234c-1.011.054-1.905.8-2.135-.787a3.663,3.663,0,0,0-2.031.292c.009-.449-.292-.863-.229-1.344l-.454-.013A29.483,29.483,0,0,1-16326.743,394.429Zm-10.221-3.731c.611,1.829,1.173,3.794,1.672,5.9,1.78,1.169,2.818-5.4,3.394-11.646a2.325,2.325,0,0,1-1.2-2.009c-1.321.117-1.281-1.227-.521-1.9-2.216-.485-1.191-1.429-.881-2.836.287-1.308.107-2.171,1.047-3.169a2.706,2.706,0,0,1,1.672-2.688,47.331,47.331,0,0,0-2.858-8.6h0a1.272,1.272,0,0,1-.795.027,1.359,1.359,0,0,0-.8.013c-.615.3-.589.953-.931,1.416a2.989,2.989,0,0,1-.391.859,6.615,6.615,0,0,1-3.1,2.045,2.65,2.65,0,0,1-.908-.184,3.253,3.253,0,0,0-.895-.193c-.463.022-.549,1.007-1.214,1.088a7.6,7.6,0,0,0-1.389-.912,1.015,1.015,0,0,0-.769.162c-.423.229-.76.458-1.128-.643a1.176,1.176,0,0,1-1.875-.93,7.765,7.765,0,0,0-.89.414,4.078,4.078,0,0,0-.513-.885c-.817.814-1.6.189-2.026-.85-.891-.081-1.223-1.115-1.924-1.924-.158.112-.423.288-.585.4-.432-1.178-1.209-1.3-1.641-.688,2.5,2.342,4.81,4.6,5.861,5.861a43.069,43.069,0,0,1,7.6,9.071,1.2,1.2,0,0,1,1.447,1.11c1.039-1.861,3.008,0,2.963,1.645l1.164.463a11.936,11.936,0,0,1,.926,2c.364.8.566,2.072-.373,2.355,1.119-.274,1.672.944,1.033,2.126-.211.072-.413.022-.634.081a3.4,3.4,0,0,1-.076,2.5c-.062-.117-.31-.432-.422-.625A2.816,2.816,0,0,1-16336.964,390.7Zm139.6-32.223a64.167,64.167,0,0,1-11.08,8.2c-3.29,1.978-8.85,1.978-11.03,5.111-2.045,2.94-1.775,6.787-1.335,10.19q4.525-1.861,9.03-3.821c.449-1.227,1.093-2.382,1.646-3.555.436.27.912.773,1.394,1.061.71-3.421,2.741-7.358,6.872-5.371.912-3.412.558-2.423,3.488-3.524.539-3.627,1.555-8.5,6.122-7.515a8.139,8.139,0,0,1-.454-2.216c-1.713,1.555-2.7,1.25-3.578.44C-16196.649,357.814-16197.009,358.152-16197.359,358.475Zm-129.433,13.129c-.4-1.465.935-1.753,1.919-1.092.526-.674,1.15-.391,1.744.018l.647.072c.211-.13.427-.261.651-.4-.373-.975-.157-2.319,1.11-2.149.063-.234.162-.409.238-.634a1.631,1.631,0,0,0,.544-.117,1.421,1.421,0,0,1,.615-.117c.014-.876.468-1.542,1.4-1.393A1.594,1.594,0,0,1-16316,364.4c.095-1.034,1.722-1.542,1.969-.378a1.9,1.9,0,0,1,2.1-.679,11.633,11.633,0,0,0,2.6-5.542.779.779,0,0,1-.845-.211c.288,2.508-2.742,3.137-3.259,1.4.337,1.348-.953,2.769-1.893,1.73a5.526,5.526,0,0,1-2.311,1.708c-.1-.171-.157-.373-.273-.548-.4,1.429-2.958,3.654-2.895.93-.737,1.034-1.7,2.018-3.048,1.757-.05-.467-.346-.867-.328-1.344-.445,1.209-1.739,2.081-2.562,1.164a20.5,20.5,0,0,0-1.128,2.513,11.087,11.087,0,0,0,.58,4.293,1.064,1.064,0,0,0,.3-.108C-16326.954,371.214-16326.747,371.775-16326.792,371.6Zm-33.415-4.612c.984.247,1.834.427,2.445.512a43.809,43.809,0,0,1,5.3,1.092s-2.117-2.095-4.729-4.616c-.751,0-1.151.607-1.151,1.519a2.029,2.029,0,0,0-.233-.013A1.533,1.533,0,0,0-16360.207,366.993Zm154.042-4.94c2.9-.98,5.835-3.466,8.469-6.09a3.5,3.5,0,0,0-2.908-1.259c.283-1.047-.095-2.585.278-3.6-1.312,1.088-2.647,1.533-3.34.261C-16204.937,354.969-16207.275,358.745-16206.165,362.053Zm-100.274-5.3a11.193,11.193,0,0,1-.5,3.479,52.7,52.7,0,0,0,4.347-4.252,1.6,1.6,0,0,1-1.047-1.2,1.346,1.346,0,0,1-2.342.827A2.507,2.507,0,0,1-16306.439,356.754Zm66.662-10.046c-.831,3.8-1.905,6.315,2.148,8.158,2.1.953,7.224,2.935,8.783.611,1.515-2.261,1.065-7.614,1.663-10.347.2-.921.414-1.852.634-2.791a4.767,4.767,0,0,1-.472-.449c-.364,2.261-3.25,3.928-4.347,1.357a4.1,4.1,0,0,1-3.762,2.158h-.153c-.157-.4.072-.782,0-1.187a4.11,4.11,0,0,1-3.951-.094C-16239.408,344.986-16239.593,345.849-16239.777,346.708Zm-9.561-6.787c1.506,2.643,3.538,8.1,5.875,7.956a20.753,20.753,0,0,0,3.349-11.669c-.971.27-2.095.031-2.651.391-1.569,1.011-4,5.578-5.457,1.879A4.685,4.685,0,0,1-16249.338,339.921Zm10.042-4.117a2.123,2.123,0,0,0,1.182.364c-.071,1.1-.18,2.184-.323,3.259l1.137-5.434C-16237.822,334.428-16238.636,335.313-16239.3,335.8Zm-159.364-12.127a1.41,1.41,0,0,1,.836.391c-.059-.328.086-.746.023-1.047a1.793,1.793,0,0,1,.2-.045c-.014-.1-.021-.207-.027-.319A3.3,3.3,0,0,1-16398.66,323.676Zm3.008-.1c.035.036.076.067.107.1,0-.063,0-.126,0-.184C-16395.58,323.519-16395.617,323.546-16395.652,323.573Zm176.529-7.574a3.549,3.549,0,0,1,.715.148c.116-.369.229-.737.346-1.11C-16218.413,315.343-16218.8,315.756-16219.123,316Zm-2.832-7.785a1.734,1.734,0,0,1,.3,1.492.221.221,0,0,0,0,.022c2.072.337,3.471,2.589,2.194,3.407a2.325,2.325,0,0,1,1.586,1.286c1.214-3.991,2.293-8.091,2.01-12.532-2.019,1.672-5.987,4.162-6-.71a14.906,14.906,0,0,1-1.884,1.155,1.878,1.878,0,0,1,.333-.027C-16222.908,304.223-16222.382,306.218-16221.955,308.214Zm-1.523-1.425c-.306-1.128-1.412-3.2-.868-4.077-.4-.6-1.7-1.528-1.964-2.041C-16229.156,303.531-16225.812,305.095-16223.479,306.789Zm-157.836-4.922c.022-.018.041-.036.063-.054a.3.3,0,0,1-.063,0h-.031C-16381.337,301.827-16381.323,301.849-16381.314,301.867Zm112,42.809-.166.13C-16269.492,344.5-16269.42,344.514-16269.312,344.676Z" transform="translate(17910 1087.545)" fill="#2e0d84" stroke="rgba(0,0,0,0)" stroke-width="1"/>
  </g>
</svg>
