<svg xmlns="http://www.w3.org/2000/svg" xmlns:xlink="http://www.w3.org/1999/xlink" width="1921.002" height="261" viewBox="0 0 1921.002 261">
  <defs>
    <linearGradient id="linear-gradient" x1="0.852" x2="0.168" y2="4.113" gradientUnits="objectBoundingBox">
      <stop offset="0" stop-color="#1b2a93"/>
      <stop offset="1" stop-color="#d31ed1"/>
    </linearGradient>
  </defs>
  <g id="visuals" transform="translate(0.5 -1379.5)">
    <path id="Path_267" data-name="Path 267" d="M0,0H1920V260H0Z" transform="translate(0 1380)" fill="url(#linear-gradient)"/>
    <g id="p6" transform="translate(1012.17 1107.409)">
      <path id="Path_29" data-name="Path 29" d="M268.565,336.1a.743.743,0,0,1,.218.032L274.844,338l.041.013,9.811-6.457a.371.371,0,0,1,.313-.045l1.556.478a.369.369,0,0,1,.185.576l-5.6,7.376,7.73,2.376,2.75-1.8a.369.369,0,0,1,.309-.043l.921.282-2.851,3.746.252,4.7-.919-.282a.369.369,0,0,1-.232-.21l-1.264-3.032-7.73-2.376.487,9.245a.369.369,0,0,1-.477.372l-1.556-.478a.37.37,0,0,1-.234-.212l-4.489-10.854-.041-.013-6.061-1.863a.753.753,0,0,1-.2-.1L265,337.668a.854.854,0,0,1,.48-1.559Z" transform="translate(-440.667 11.624) rotate(-8)" fill="#fff"/>
      <path id="Path_37" data-name="Path 37" d="M0,0S294.772,33.115,422.192,70.583s84.846,82.554,84.846,82.554" transform="translate(-109.67 312.091)" fill="none" stroke="#fff" stroke-width="1" stroke-dasharray="3"/>
    </g>
    <path id="cloud_1" data-name="cloud 1" d="M145.228,473.2H144.6l.031-158.381a128.412,128.412,0,0,1,204.01,88.589,114.947,114.947,0,0,1,25.882,12.432c.177-1.159.378-2.318.622-3.477a61.248,61.248,0,0,1,120.111,1.256A136.686,136.686,0,0,1,613.735,473.2l-468.281.008Zm508.861-12.371C677.863,367.8,758.912,296.15,859.954,288.916c101.063-7.235,191.5,52.174,228.27,140.9a205.319,205.319,0,0,1,50.562,8.6c-.266-2.076-.492-4.164-.643-6.275A109.4,109.4,0,0,1,1345,375.166a244.142,244.142,0,0,1,238.754,49.1,181.39,181.39,0,0,1,171.509-63.552,267.1,267.1,0,0,1,80.07-147.514h228.262l1.007,259.967L621.925,473.2A101.717,101.717,0,0,1,654.089,460.832Z" transform="translate(-144.601 1166.796)" fill="#2e0d84" stroke="rgba(0,0,0,0)" stroke-width="1"/>
  </g>
</svg>
