<svg xmlns="http://www.w3.org/2000/svg" width="19.637" height="21.819" viewBox="0 0 19.637 21.819">
  <path id="ic_event_available_24px" d="M17.76,11.975,16.6,10.818,11.28,16.142,8.967,13.829,7.811,14.986l3.469,3.469,6.48-6.48Zm2.695-8.793H19.364V1H17.182V3.182H8.455V1H6.273V3.182H5.182A2.172,2.172,0,0,0,3.011,5.364L3,20.637a2.181,2.181,0,0,0,2.182,2.182H20.455a2.188,2.188,0,0,0,2.182-2.182V5.364A2.188,2.188,0,0,0,20.455,3.182Zm0,17.455H5.182v-12H20.455Z" transform="translate(-3 -1)" fill="#ececec"/>
</svg>
