<svg xmlns="http://www.w3.org/2000/svg" width="16.264" height="16.264" viewBox="0 0 16.264 16.264">
  <g id="Group_113" data-name="Group 113" transform="translate(-383.368 -153.868)">
    <line id="Line_8" data-name="Line 8" y2="17" transform="translate(397.51 155.99) rotate(45)" fill="none" stroke="#2e0d84" stroke-linecap="round" stroke-width="3"/>
    <line id="Line_9" data-name="Line 9" x1="0.001" y1="17" transform="translate(397.511 168.01) rotate(135)" fill="none" stroke="#2e0d84" stroke-linecap="round" stroke-width="3"/>
  </g>
</svg>
