<svg xmlns="http://www.w3.org/2000/svg" xmlns:xlink="http://www.w3.org/1999/xlink" width="210.175" height="50.561" viewBox="0 0 210.175 50.561">
  <defs>
    <clipPath id="clip-path">
      <rect id="Rectangle_481" data-name="Rectangle 481" width="44.746" height="44.746" rx="15.833" fill="none"/>
    </clipPath>
    <linearGradient id="linear-gradient" x1="-0.003" y1="0.79" x2="1.003" y2="0.21" gradientUnits="objectBoundingBox">
      <stop offset="0" stop-color="#de008d"/>
      <stop offset="1" stop-color="#320587"/>
    </linearGradient>
  </defs>
  <g id="лого" transform="translate(-156.612 -67.397)">
    <g id="Group_143" data-name="Group 143">
      <g id="Group_142" data-name="Group 142">
        <text id="lokoplane" transform="translate(210.787 74.529)" fill="#1f0565" font-size="32" font-family="SegoeUI-Bold, Segoe UI" font-weight="700" letter-spacing="-0.05em"><tspan x="0" y="35">lokoplane</tspan></text>
        <g id="Group_134" data-name="Group 134" transform="translate(157.112 67.897)">
          <g id="Group_133" data-name="Group 133" transform="translate(2.182 1.985)">
            <g id="Group_132" data-name="Group 132" clip-path="url(#clip-path)">
              <rect id="Rectangle_480" data-name="Rectangle 480" width="44.746" height="44.746" rx="15.833" fill="url(#linear-gradient)"/>
              <g id="Group_131" data-name="Group 131" transform="translate(6.219 6.503)">
                <g id="Group_130" data-name="Group 130">
                  <g id="Group_129" data-name="Group 129">
                    <path id="Path_281" data-name="Path 281" d="M173.362,81.449c.317.43.623.85.933,1.268,3.672,4.932,7.351,9.86,11.211,14.648,1.332,1.653,2.753,3.233,4.137,4.843a2.938,2.938,0,0,0,1.272.846c2.426.865,4.84,1.767,7.277,2.6q7.4,2.526,14.821,4.99,4.177,1.387,8.357,2.765c3.688,1.215,13.084-3.621,13.084-3.621L217.172,106.7l-22.008-3.936a5.423,5.423,0,0,1-1.962-.8,12.752,12.752,0,0,1-2.1-1.963L174.381,81.449Z" transform="translate(-168.92 -79.226)" fill="#fff"/>
                    <path id="Path_282" data-name="Path 282" d="M217.456,112.59q-4.793-1.6-9.58-3.216-7.842-2.646-15.679-5.3c-.8-.272-1.588-.611-2.395-.876a5.006,5.006,0,0,1-2.143-1.463c-2.193-2.392-4.211-4.932-6.178-7.508-3.513-4.6-6.982-9.232-10.469-13.851-.04-.054-.075-.111-.149-.222l1.7.055a6.531,6.531,0,0,0-2.243-1.309c-1.828-.582-2.581,0-2.581,0l12.907,24.917s14.384,10.528,19.9,12.027C205.062,117.068,224.283,114.867,217.456,112.59Z" transform="translate(-167.742 -78.636)" fill="#fff"/>
                  </g>
                </g>
              </g>
              <path id="Path_283" data-name="Path 283" d="M173.119,120.956a6.873,6.873,0,0,0,.315-2.062,7.241,7.241,0,0,0-7.349-7.106,7.546,7.546,0,0,0-2.071.286,11.934,11.934,0,0,0-9.558-4.664,11.78,11.78,0,0,0-11.472,8.5,8.3,8.3,0,1,0,.166,16.6,8.805,8.805,0,0,0,3.726-.82,10.954,10.954,0,0,0,15.419,2.108,9.229,9.229,0,0,0,3.28.6,8.86,8.86,0,0,0,9-8.7A8.422,8.422,0,0,0,173.119,120.956Z" transform="translate(-154.566 -78.166)" fill="#fff"/>
            </g>
          </g>
          <rect id="Rectangle_482" data-name="Rectangle 482" width="49.561" height="49.561" rx="17.958" fill="none" stroke="#707070" stroke-miterlimit="10" stroke-width="1"/>
        </g>
      </g>
    </g>
  </g>
</svg>
