<svg xmlns="http://www.w3.org/2000/svg" width="11.784" height="6.26" viewBox="0 0 11.784 6.26">
  <path id="Path_129" data-name="Path 129" d="M-.457-2.388,4.49,1.827,9.212-2.235" transform="translate(1.514 3.445)" fill="none" stroke="#2e0d84" stroke-linecap="round" stroke-width="1.5"/>
</svg>
