<svg xmlns="http://www.w3.org/2000/svg" width="48" height="46" viewBox="0 0 48 46">
  <path id="ic_card_giftcard_24px" d="M45.2,11.684H39.968A7.331,7.331,0,0,0,40.4,9.263,7.18,7.18,0,0,0,27.2,5.268L26,6.891,24.8,5.244A7.19,7.19,0,0,0,11.6,9.263a7.331,7.331,0,0,0,.432,2.421H6.8a4.784,4.784,0,0,0-4.776,4.842L2,43.158A4.8,4.8,0,0,0,6.8,48H45.2A4.8,4.8,0,0,0,50,43.158V16.526A4.8,4.8,0,0,0,45.2,11.684Zm-12-4.842a2.421,2.421,0,1,1-2.4,2.421A2.418,2.418,0,0,1,33.2,6.842Zm-14.4,0a2.421,2.421,0,1,1-2.4,2.421A2.418,2.418,0,0,1,18.8,6.842ZM45.2,43.158H6.8V38.316H45.2Zm0-12.105H6.8V16.526H18.992L14,23.378l3.888,2.833L23.6,18.366,26,15.074l2.4,3.293,5.712,7.844L38,23.378l-4.992-6.852H45.2Z" transform="translate(-2 -2)" fill="#e2e2e2"/>
</svg>
