<svg xmlns="http://www.w3.org/2000/svg" xmlns:xlink="http://www.w3.org/1999/xlink" width="24.968" height="25.548" viewBox="0 0 24.968 25.548">
  <defs>
    <clipPath id="clip-path">
      <path id="Path_286" data-name="Path 286" d="M26.677,12.452h-11.9v4.935h6.852c-.639,3.135-3.31,4.935-6.852,4.935a7.548,7.548,0,0,1,0-15.1,7.385,7.385,0,0,1,4.7,1.684l3.716-3.716a12.766,12.766,0,1,0-8.419,22.355c6.387,0,12.194-4.645,12.194-12.774A10.6,10.6,0,0,0,26.677,12.452Z" transform="translate(-2 -2)"/>
    </clipPath>
  </defs>
  <g id="Google__G__Logo" transform="translate(-2 -2)">
    <g id="Group_143" data-name="Group 143" transform="translate(2 2)" clip-path="url(#clip-path)">
      <path id="Path_285" data-name="Path 285" d="M0,26.1V11l9.871,7.548Z" transform="translate(-1.161 -5.774)" fill="#fbbc05"/>
    </g>
    <g id="Group_144" data-name="Group 144" transform="translate(2 2)" clip-path="url(#clip-path)">
      <path id="Path_287" data-name="Path 287" d="M0,6.387l9.871,7.548,4.065-3.542L27.871,8.129V0H0Z" transform="translate(-1.161 -1.161)" fill="#ea4335"/>
    </g>
    <g id="Group_145" data-name="Group 145" transform="translate(2 2)" clip-path="url(#clip-path)">
      <path id="Path_289" data-name="Path 289" d="M0,21.484,17.419,8.129l4.587.581L27.871,0V27.871H0Z" transform="translate(-1.161 -1.161)" fill="#34a853"/>
    </g>
    <g id="Group_146" data-name="Group 146" transform="translate(2 2)" clip-path="url(#clip-path)">
      <path id="Path_291" data-name="Path 291" d="M33.323,32.484l-18-13.935L13,16.806,33.323,11Z" transform="translate(-6.613 -5.774)" fill="#4285f4"/>
    </g>
  </g>
</svg>
